…
The function `precip_indices()` returns a data.frame with the precipitation indices. Each date corresponds to the first day in the time series intervals as defined by the argument 'intervals'. When `timeseries = FALSE` the function returns a single precipitation index for the entire time series.


```r

precip_indices(dat, timeseries = TRUE, intervals = 15)
#> # A tibble: 4,380 x 6
#>       id date         lon   lat index  value
#>    <int> <date>     <dbl> <dbl> <chr>  <dbl>
#>  1     1 2013-01-01 -55.0 -3.80 MLDS     7  
#>  2     1 2013-01-01 -55.0 -3.80 MLWS     2  
#>  3     1 2013-01-01 -55.0 -3.80 R10mm    1  
#>  4     1 2013-01-01 -55.0 -3.80 R20mm    3  
#>  5     1 2013-01-01 -55.0 -3.80 Rx1day  47.4
#>  6     1 2013-01-01 -55.0 -3.80 Rx5day 103. 
#>  7     1 2013-01-01 -55.0 -3.80 R95p     0  
#>  8     1 2013-01-01 -55.0 -3.80 R99p     0  
#>  9     1 2013-01-01 -55.0 -3.80 Rtotal 139. 
#> 10     1 2013-01-01 -55.0 -3.80 SDII    27.8
#> # … with 4,370 more rows
```
…
