Get CHIRPS precipitation data — get_chirps • chirps
…
object <- chirps:::.sf_to_geojson(tapajos[1:2,])
#> Warning: st_buffer does not correctly buffer longitude/latitude data
#> dist is assumed to be in decimal degrees (arc_degrees).

object <- unlist(object)

class(object) <- c("geojson", "json", class(object))

dates <- c("2018-01-01","2018-01-20")

get_chirps(object, dates)
#> Warning: st_centroid does not give correct centroids for longitude/latitude data
#> Warning: st_centroid does not give correct centroids for longitude/latitude data
#> Getting your request...
#> # A tibble: 40 x 5
#>    id      lon   lat date       chirps
#>    <chr> <dbl> <dbl> <date>      <dbl>
#>  1 1     -55.0 -3.36 2018-01-01    0  
#>  2 1     -55.0 -3.36 2018-01-02    0  
#>  3 1     -55.0 -3.36 2018-01-03    0  
#>  4 1     -55.0 -3.36 2018-01-04    0  
#>  5 1     -55.0 -3.36 2018-01-05    0  
#>  6 1     -55.0 -3.36 2018-01-06    0  
#>  7 1     -55.0 -3.36 2018-01-07    0  
#>  8 1     -55.0 -3.36 2018-01-08   16.7
#>  9 1     -55.0 -3.36 2018-01-09    0  
#> 10 1     -55.0 -3.36 2018-01-10    0  
#> # … with 30 more rows
…
