Get Evaporative Stress Index (ESI) data — get_esi • chirps
…
library("chirps")

lonlat <- data.frame(lon = c(-55.0281,-54.9857, -55.0714),
                     lat = c(-2.8094, -2.8756, -3.5279))

dates <- c("2017-12-15","2018-06-20")

# by default the function set a very small buffer around the points
# which can return NAs due to cloudiness in ESI data

dat <- get_esi(lonlat, dates = dates)
#> Getting your request...

dat
#> # A tibble: 41 x 5
#>    id      lon   lat date           esi
#>    <chr> <dbl> <dbl> <date>       <dbl>
#>  1 1     -55.0 -2.81 NA         NA     
#>  2 2     -55.0 -2.88 2017-12-11 -0.844 
#>  3 2     -55.0 -2.88 2018-01-01 -1.51  
#>  4 2     -55.0 -2.88 2018-01-09 -0.536 
#>  5 2     -55.0 -2.88 2018-01-17 -0.935 
#>  6 2     -55.0 -2.88 2018-01-25 -0.838 
#>  7 2     -55.0 -2.88 2018-02-02 -0.0731
#>  8 2     -55.0 -2.88 2018-03-06  1.27  
#>  9 2     -55.0 -2.88 2018-03-14  1.10  
#> 10 2     -55.0 -2.88 2018-03-22  0.792 
#> # ... with 31 more rows

# the argument dist passed through sf increase the buffer area

dat <- get_esi(lonlat, dates = dates, dist = 0.1)
#> Getting your request...

dat
#> # A tibble: 69 x 5
#>    id      lon   lat date           esi
#>    <chr> <dbl> <dbl> <date>       <dbl>
#>  1 1     -55.0 -2.81 2017-12-11 -1.98  
#>  2 1     -55.0 -2.81 2018-01-01 -1.49  
#>  3 1     -55.0 -2.81 2018-01-09 -0.219 
#>  4 1     -55.0 -2.81 2018-01-17 -0.423 
#>  5 1     -55.0 -2.81 2018-01-25 -0.239 
#>  6 1     -55.0 -2.81 2018-02-02  0.418 
#>  7 1     -55.0 -2.81 2018-02-10  0.435 
#>  8 1     -55.0 -2.81 2018-02-18  0.473 
#>  9 1     -55.0 -2.81 2018-02-26  0.126 
#> 10 1     -55.0 -2.81 2018-03-06  0.0570
#> # ... with 59 more rows
…
